module gitlab.com/alex.dogonin/rectangles-drawing

go 1.12

require (
	github.com/fogleman/gg v1.3.0
	github.com/golang/freetype v0.0.0-20170609003504-e2365dfdc4a0 // indirect
	golang.org/x/image v0.0.0-20191009234506-e7c1f5e7dbb8 // indirect
)
